Chapter 16 Case Study - Mushrooms Classification | Machine Learning with R
…
number_class <- function(x){
  x <- length(levels(x))
}

x <- mushroom %>% map_dbl(function(.x) number_class(.x)) %>% as_tibble() %>% 
       rownames_to_column() %>% arrange(desc(value))

## Warning: Calling `as_tibble()` on a vector is discouraged, because the behavior is likely to change in the future. Use `enframe(name = NULL)` instead.
## This warning is displayed once per session.

colnames(x) <- c("Variable name", "Number of levels")
print(x)

## # A tibble: 23 x 2
##    `Variable name` `Number of levels`
##    <chr>                        <dbl>
##  1 10                              12
##  2 4                               10
##  3 15                              10
##  4 16                              10
##  5 6                                9
##  6 21                               9
##  7 23                               7
##  8 2                                6
##  9 22                               6
## 10 12                               5
## # … with 13 more rows
…
